{
    "KPackageStructure": "Plasma/Wallpaper",
    "KPlugin": {
        "Authors": [
            {
                "Email": "mart@kde.org",
                "Name": "Marco Martin",
                "Name[ar]": "Marco Martin",
                "Name[ast]": "Marco Martin",
                "Name[az]": "Marco Martin",
                "Name[be]": "Marco Martin",
                "Name[bg]": "Марко Мартин",
                "Name[ca@valencia]": "Marco Martin",
                "Name[ca]": "Marco Martin",
                "Name[cs]": "Marco Martin",
                "Name[da]": "Marco Martin",
                "Name[de]": "Marco Martin",
                "Name[en_GB]": "Marco Martin",
                "Name[eo]": "Marco Martin",
                "Name[es]": "Marco Martin",
                "Name[et]": "Marco Martin",
                "Name[eu]": "Marco Martin",
                "Name[fi]": "Marco Martin",
                "Name[fr]": "Marco Martin",
                "Name[gl]": "Marco Martin",
                "Name[he]": "מרקו מרטין",
                "Name[hi]": "मार्को मार्टिन",
                "Name[hu]": "Marco Martin",
                "Name[ia]": "Marco Martin",
                "Name[id]": "Marco Martin",
                "Name[is]": "Marco Martin",
                "Name[it]": "Marco Martin",
                "Name[ja]": "Marco Martin",
                "Name[ka]": "მაკრო მარტინი",
                "Name[ko]": "Marco Martin",
                "Name[lt]": "Marco Martin",
                "Name[nl]": "Marco Martin",
                "Name[nn]": "Marco Martin",
                "Name[pa]": "ਮਾਰਕੋ ਮਾਰਟਿਨ",
                "Name[pl]": "Marco Martin",
                "Name[pt]": "Marco Martin",
                "Name[pt_BR]": "Marco Martin",
                "Name[ro]": "Marco Martin",
                "Name[ru]": "Marco Martin",
                "Name[sa]": "मार्को मार्टिन्",
                "Name[sk]": "Marco Martin",
                "Name[sl]": "Marco Martin",
                "Name[sv]": "Marco Martin",
                "Name[ta]": "மார்க்கோ மார்ட்டின்",
                "Name[tr]": "Marco Martin",
                "Name[uk]": "Marco Martin",
                "Name[vi]": "Marco Martin",
                "Name[x-test]": "xxMarco Martinxx",
                "Name[zh_CN]": "Marco Martin",
                "Name[zh_TW]": "Marco Martin"
            }
        ],
        "Category": "",
        "Description": "Plain color wallpaper",
        "Description[ar]": "خلفية لون صِرف",
        "Description[az]": "Sadə, bir rəngli divar kağızları",
        "Description[be]": "Аднатонныя шпалеры",
        "Description[bg]": "Тапет с обикновен цвят",
        "Description[ca@valencia]": "Fons de pantalla en color llis",
        "Description[ca]": "Fons de pantalla en color llis",
        "Description[cs]": "Tapeta v prosté barvě",
        "Description[da]": "Ensfarvet baggrundsbillede",
        "Description[de]": "Einfarbiges Hintergrundbild",
        "Description[en_GB]": "Plain colour wallpaper",
        "Description[eo]": "Platkolora ekranfono",
        "Description[es]": "Fondo del escritorio de color liso",
        "Description[et]": "Puhast värvi taustapilt",
        "Description[eu]": "Kolore bakarreko horma-papera",
        "Description[fi]": "Yksivärinen tausta",
        "Description[fr]": "Fond d'écran de couleur unie",
        "Description[he]": "תמונת רקע בצבע רגיל",
        "Description[hi]": "सादे रंग का वॉलपेपर",
        "Description[hu]": "Egyszínű háttérkép",
        "Description[ia]": "Tapete de papiro de Color plan",
        "Description[id]": "Wallpaper warna polos",
        "Description[is]": "Veggfóður í hreinum lit",
        "Description[it]": "Sfondo con colore semplice",
        "Description[ja]": "単色の壁紙",
        "Description[ka]": "უბრალო ფერი ფონად",
        "Description[ko]": "단색 배경 그림",
        "Description[lt]": "Vientisos spalvos darbalaukio fonas",
        "Description[nl]": "Vlakke kleur achtergrond",
        "Description[nn]": "Rein farge som bakgrunn",
        "Description[pa]": "ਇੱਕ ਰੰਗ ਦਾ ਵਾਲਪੇਪਰ",
        "Description[pl]": "Tapeta zwykłego koloru",
        "Description[pt]": "Papel de parede de cor simples",
        "Description[pt_BR]": "Papel de parede de cor simples",
        "Description[ro]": "Tapet de o culoare",
        "Description[ru]": "Простые одноцветные обои",
        "Description[sa]": "सादा वर्ण दीपचित्रम्",
        "Description[sk]": "Tapeta obyčajná farba",
        "Description[sl]": "Ozadje s preprosto barvo",
        "Description[sv]": "Skrivbordsunderlägg med enkel färg",
        "Description[ta]": "ஒரே ஒரு நிறத்தை கொண்ட பின்புலம்",
        "Description[tr]": "Düz renk duvar kağıdı",
        "Description[uk]": "Звичайне одноколірне тло",
        "Description[vi]": "Phông nền dạng màu trơn",
        "Description[x-test]": "xxPlain color wallpaperxx",
        "Description[zh_CN]": "纯色壁纸",
        "Description[zh_TW]": "純色桌布",
        "Icon": "preferences-desktop-color",
        "Id": "org.kde.color",
        "License": "GPLv2+",
        "Name": "Plain Color",
        "Name[ar]": "لون صِرف",
        "Name[az]": "Bir rəngli divar kağızları",
        "Name[be]": "Просты колер",
        "Name[bg]": "Обикновен цвят",
        "Name[bs]": "Obična boja",
        "Name[ca@valencia]": "Color llis",
        "Name[ca]": "Color llis",
        "Name[cs]": "Prostá barva",
        "Name[da]": "Almindelig farve",
        "Name[de]": "Einfarbig",
        "Name[el]": "Απλό χρώμα",
        "Name[en_GB]": "Plain Colour",
        "Name[eo]": "Simpla Koloro",
        "Name[es]": "Color sencillo",
        "Name[et]": "Puhas värv",
        "Name[eu]": "Kolore bakarra",
        "Name[fi]": "Yksivärinen",
        "Name[fr]": "Couleur pleine",
        "Name[gl]": "Cor simple",
        "Name[he]": "צבע רגיל",
        "Name[hi]": "सादा रंग",
        "Name[hu]": "Egyszerű szín",
        "Name[ia]": "Color plan",
        "Name[id]": "Warna Polos",
        "Name[is]": "Hreinn litur",
        "Name[it]": "Colore semplice",
        "Name[ja]": "単色",
        "Name[ka]": "უბრალო ფერი",
        "Name[kk]": "Жәй түсі",
        "Name[ko]": "단색",
        "Name[lt]": "Vientisa spalva",
        "Name[lv]": "Vienkārša krāsa",
        "Name[ml]": "പ്ലെയിൻ നിറം",
        "Name[nb]": "Ren farge",
        "Name[nds]": "Eenfach Klöör",
        "Name[nl]": "Vlakke kleur",
        "Name[nn]": "Rein farge",
        "Name[pa]": "ਇੱਕ ਰੰਗ",
        "Name[pl]": "Zwykły kolor",
        "Name[pt]": "Cor Simples",
        "Name[pt_BR]": "Cor simples",
        "Name[ro]": "Culoare simplă",
        "Name[ru]": "Одноцветные обои",
        "Name[sa]": "सादा रङ्ग",
        "Name[sk]": "Obyčajná farba",
        "Name[sl]": "Preprosta barva",
        "Name[sr@ijekavian]": "проста боја",
        "Name[sr@ijekavianlatin]": "prosta boja",
        "Name[sr@latin]": "prosta boja",
        "Name[sr]": "проста боја",
        "Name[sv]": "Enkel färg",
        "Name[ta]": "வெறும் நிறம்",
        "Name[tr]": "Düz Renk",
        "Name[uk]": "Звичайний колір",
        "Name[vi]": "Màu trơn",
        "Name[x-test]": "xxPlain Colorxx",
        "Name[zh_CN]": "纯色",
        "Name[zh_TW]": "純色",
        "Website": "https://kde.org/plasma-desktop"
    },
    "Keywords": "",
    "X-KDE-ParentApp": "org.kde.plasmashell"
}
