{
    "KPlugin": {
        "BugReportUrl": "https://bugs.kde.org/enter_bug.cgi?product=systemsettings&component=kcm_regionandlang",
        "Description": "Language Setting, Numeric, Currency and Time Formats",
        "Description[ar]": "إعدادات اللغة وتنسيقات الأرقام والعملات والوقت",
        "Description[az]": "Dil ayarları, say, valyuta və tarix formatları",
        "Description[be]": "Налады мовы, лічбаў, валюты і фармат часу",
        "Description[bg]": "Формат на езикови настройки, метрични единици, валута, дата и час",
        "Description[ca@valencia]": "Configureu l'idioma i el format numèric, monetari i horari",
        "Description[ca]": "Configuració de l'idioma i el format numèric, monetari i horari",
        "Description[cs]": "Nastavení jazyka a formátů číslování, měny a času",
        "Description[de]": "Spracheinstellungen, Formate für Zahlen, Währung und Zeitangaben",
        "Description[en_GB]": "Language Setting, Numeric, Currency and Time Formats",
        "Description[eo]": "Lingva Agordo, Numeraj, Moneraj kaj Tempaj formatoj",
        "Description[es]": "Preferencia de idiomas, formatos numérico, de moneda y de hora",
        "Description[eu]": "Hizkuntza-ezarpena, zenbaki-, moneta- eta denbora-formatuak",
        "Description[fi]": "Kieliasetus sekä lukujen, valuutan ja ajan muotoilu",
        "Description[fr]": "Définir la langue, le format numérique, de monnaie et d'heure",
        "Description[he]": "הגדרות שפה, תבניות של מספרים, מטבעות ושעה",
        "Description[hi]": "संख्यात्मक, मुद्रा और समय प्रारूप",
        "Description[ia]": "Preferentias de linguage, Formatos numeric, de numerario e de tempore",
        "Description[id]": "Pengaturan Bahasa, Format Numerik, Mata Uang, dan Waktu",
        "Description[is]": "Tungumálastillingar, tölusnið, gjaldmiðill og tímasnið",
        "Description[it]": "Impostazione della lingua, formati numerici, delle valute e dell'orario",
        "Description[ja]": "言語設定、数値、通貨と時間表記",
        "Description[ka]": "ენის მორგება, რიცხვები, ვალუტისა და დროის ფორმატები",
        "Description[ko]": "언어, 숫자, 통화, 시간 형식 설정",
        "Description[lt]": "Kalbos nuostata, skaitmenų, valiutos ir laiko formatai",
        "Description[nl]": "Formaten voor taal, numerieke getallen, munteenheid en tijd",
        "Description[nn]": "Oppsett av språk, tal, valuta og tid",
        "Description[pa]": "ਭਾਸ਼ਾ ਸੈਟਿੰਗ, ਅੰਕ, ਮੁਦਰਾ ਅਤੇ ਸਮਾਂ ਫ਼ਾਰਮੈਟ",
        "Description[pl]": "Ustawienia językowe, zapis liczb, walut i czasu",
        "Description[pt]": "Configuração da Língua, Formatos Numéricos, Monetários e de Datas",
        "Description[pt_BR]": "Configurações de idioma, formatos numérico, monetário e de horas",
        "Description[ru]": "Языковые параметры, форматы записи чисел, времени и денежных сумм",
        "Description[sa]": "भाषासमयोजनानि, संख्यात्मकं, मुद्रां समयस्वरूपं च",
        "Description[sk]": "Nastavenie jazyka, číselných, menových a časových formátov",
        "Description[sl]": "Nastavitve jezika, oblike števil, valute in časa",
        "Description[sv]": "Språkinställningar, numeriska format, valutaformat och tidsformat",
        "Description[ta]": "எண்கள், பண மதிப்புகள், மற்றும் நேரங்கள் எழுதப்படும் விதமும், மொழிகுறித்த அமைப்புகளும்",
        "Description[tr]": "Dil Ayarı, Sayı, Para Birimi ve Zaman Biçimleri",
        "Description[uk]": "Параметри мови, формати запису чисел, грошових сум та часу",
        "Description[vi]": "Thiết lập ngôn ngữ, định dạng số, tiền tệ và thời gian",
        "Description[x-test]": "xxLanguage Setting, Numeric, Currency and Time Formatsxx",
        "Description[zh_CN]": "语言设置、数字、货币和时间格式",
        "Description[zh_TW]": "語言設定、數值、貨幣與時間格式",
        "FormFactors": [
            "tablet",
            "handset",
            "desktop"
        ],
        "Icon": "preferences-desktop-locale",
        "Name": "Region & Language",
        "Name[ar]": "اللغة والمنطقة",
        "Name[ast]": "Rexón ya llingua",
        "Name[az]": "Bölgə və Dil",
        "Name[be]": "Рэгіён і мова",
        "Name[bg]": "Език и регионални настройки",
        "Name[ca@valencia]": "Regió i idioma",
        "Name[ca]": "Regió i idioma",
        "Name[cs]": "Region a jazyk",
        "Name[de]": "Region & Sprache",
        "Name[en_GB]": "Region & Language",
        "Name[eo]": "Regiono & Lingvo",
        "Name[es]": "Región e idioma",
        "Name[et]": "Regioon ja keel",
        "Name[eu]": "Eskualdea eta hizkuntza",
        "Name[fi]": "Alue ja kieli",
        "Name[fr]": "Pays et langue",
        "Name[he]": "אזור ושפה",
        "Name[hi]": "क्षेत्र और भाषा &",
        "Name[ia]": "Region & Linguage",
        "Name[id]": "Wilayah & Bahasa",
        "Name[is]": "Land og tungumál",
        "Name[it]": "Regione e lingua",
        "Name[ja]": "地域と言語",
        "Name[ka]": "რეგიონი და ენა",
        "Name[ko]": "지역과 언어",
        "Name[lt]": "Regionas ir kalba",
        "Name[nl]": "Regio & taal",
        "Name[nn]": "Språk og region",
        "Name[pa]": "ਇਲਾਕਾ ਅਤੇ ਭਾਸ਼ਾ",
        "Name[pl]": "Region i język",
        "Name[pt]": "Região & Língua",
        "Name[pt_BR]": "Região e idioma",
        "Name[ru]": "Региональные и языковые параметры",
        "Name[sa]": "क्षेत्र एवं भाषा",
        "Name[sk]": "Región a Jazyk",
        "Name[sl]": "Regija in Jezik",
        "Name[sv]": "Region och språk",
        "Name[ta]": "மொழியும் மண்டலமும்",
        "Name[tr]": "Bölge ve Dil",
        "Name[uk]": "Регіон та мова",
        "Name[vi]": "Vùng & ngôn ngữ",
        "Name[x-test]": "xxRegion & Languagexx",
        "Name[zh_CN]": "区域和语言",
        "Name[zh_TW]": "區域與語言"
    },
    "X-DocPath": "kcontrol/region_language/index.html",
    "X-KDE-Keywords": "language,translation,number format,locale,Country,charsets,character sets,Decimal symbol,Thousands separator,symbol,separator,sign,positive,negative,currency,money,fractional digits,calendar,time,date,formats,week,week start,first,paper,size,letter,A4,measure,metric,English,Imperial,region,measurement units,collation,sorting,date format",
    "X-KDE-Keywords[ar]": "لغة,ترجمة,تنسيق رقم,لغة,بلد,أحرف,مجموعات أحرف,رمز عشري,فاصل آلاف,رمز,فاصل,علامة,موجب,سلبي,عملة,نقود,علامة جزئية,تقويم,وقت,تاريخ,تنسيقات,أسبوع,أسبوع ابدأ,أولا,ورقة,حجم,حرف,A4,قياس,متري,إنجليزي,إمبراطوري,منطقة,وحدة القياسات,تنسيق التاريخ",
    "X-KDE-Keywords[az]": "language,translation,number format,locale,Country,charsets,character sets,Decimal symbol,Thousands separator,symbol,separator,sign,positive,negative,currency,money,fractional digits,calendar,time,date,formats,week,week start,first,paper,size,letter,A4,measure,metric,English,Imperial,region,measurement units,collation,sorting,date format,dil,tərcümə,say formatı,yerli, Ölkə,tablolar,simvol dəstləri,Onluqlar simvolu,Minlik ayırıcı,simvol,ayırıcı,işarə,müsbət,mənfi,valyuta,pul,kəsirrəqəmləri,təqvim,vaxt,tarix,formatlar,həftə, həftənin başlanğıcı,ilk,kağız,ölçü,məktub,A4,ölçü,metrik,İngilis,bölgə,ölçü vahisləri,toplama,çeşidləmə,tarix formatı",
    "X-KDE-Keywords[ca]": "idioma,traducció,format numèric,configuració regional,país,jocs de caràcters,joc de caràcters,símbol decimal,separador de milers,símbol,separador,signe,positiu,negatiu,moneda,diners,dígits fraccionaris,calendari,hora,data,formats,setmana,inici de setmana,primer,paper,mida,carta,A4,mesura,mètric,Anglès,Imperial,regió,unitats de mesura,col·lació,ordenació,format de data",
    "X-KDE-Keywords[cs]": "jazyk,překlad,formát čísel,locale,Země,znakové sady,sady znaků,desítkový symbol,Oddělovač tisíců,symbol,oddělovač,znaménko,kladné,záporné,měna,peníze,zlomky, kalendář,čas,datum,formáty,týden,začátek týdne,první,papír,velikost,dopis,A4,míry,metrické,Anglické,Imperiální,region,měrné jednotky,srovnání,řazení,formát dat",
    "X-KDE-Keywords[en_GB]": "language,translation,number format,locale,Country,charsets,character sets,Decimal symbol,Thousands separator,symbol,separator,sign,positive,negative,currency,money,fractional digits,calendar,time,date,formats,week,week start,first,paper,size,letter,A4,measure,metric,English,Imperial,region,measurement units,collation,sorting,date format",
    "X-KDE-Keywords[es]": "idioma,traducción,formato numérico,local,país,conjuntos de caracteres,símbolo decimal,separador de miles,separador de millares,símbolo,separador,signo,positivo,negativo,divisa,moneda,dígitos fraccionarios,calendario,hora,fecha,formatos,semana,inicio de la semana,primero,papel,tamaño,letter,folio,A4,medida,métrica,inglés,imperial,región,unidades de medida,recopilación,orden,formato de fecha",
    "X-KDE-Keywords[eu]": "hizkuntza,itzulpena,zenbaki formatua,tokikoak,Herrialdea,karaktere-multzoak,karaktereen multzoak,ikur hamartarra,milakoen bereizlea,ikurra,bereizlea,zeinua,positiboa,negatiboa,moneta,dirua,zatikien digituak,egutegia,ordua,data, formatuak,astea,asteko hasiera,lehena,papera,neurria,gutuna,A4,neurria, metrika,ingelesa,Inperiala,eskualdea,neurri-unitateak,bilketa,sailkapena,data-formatua",
    "X-KDE-Keywords[fi]": "kieli,käännös,kääntäminen,lukujen muotoilu,numeroiden muotoilu,locale,alue,alueasetukset,maa,merkistöt,desimaalierotin,tuhaterotin,symboli,erotin,merkki,positiivinen,negatiivinen,valuutta,raha,desimaalipaikkoja,desimaalipaikat,kalenteri,aika,kellonaika,päiväys,päivämäärä,muodot,viikko,viikon alku,viikon ensimmäinen päivä,ensimmäinen,paperi,koko,letter,A4,mittajärjestelmä,mittaaminen,metrinen,anglosaksinen,mittayksiköt,lajittelu,aakkostus,päivämäärän muoto",
    "X-KDE-Keywords[fr]": "langue, traduction, format numérique, paramètres régionaux, pays, jeu de caractères, tables de caractères, symbole décimal, séparateur des milliers, symbole, séparateur, signe, positif, négatif, devise, monnaie, chiffres après la virgule, calendrier, heure, date, formats, semaine, début de semaine, premier, papier, taille, lettre, A4, mesure, métrique, anglais, français, impérial, région, unités de mesure, rassemblement, tri, format de date",
    "X-KDE-Keywords[hi]": "भाषा,अनुवाद,संख्या प्रारूप,स्थान,देश,वर्ण सेट,वर्ण सेट,दशमलव प्रतीक,हज़ारों विभाजक,प्रतीक,विभाजक,चिह्न,धनात्मक,ऋणात्मक मुद्रा,धन,भिन्नात्मक अंक,कैलेंडर,समय,दिनांक,प्रारूप,सप्ताह,सप्ताह प्रारंभ,पहला, कागज,आकार,अक्षर,ए४,माप,मीट्रिक,अंग्रेजी,इंपीरियल,क्षेत्र, माप इकाइयाँ, संयोजन, छँटाई, दिनांक प्रारूप",
    "X-KDE-Keywords[hu]": "nyelv,fordítás,számformátum,területi beállítás,ország,karakterkészlet,karakterkészletek,tizedesjel,ezres elválasztó,jel,elválasztó,előjel,pozitív,negatív,pénznem,pénz,tizedesjegyek,naptár,idő,dátum,formátumok,hét,hét kezdete,első,papír,méret,levél,A4,mértékegység,metrikus,angol,birodalmi,régió,mértékegységek,illesztés,rendezés,dátumformátum",
    "X-KDE-Keywords[ia]": "linguage,traduction,formato de numero,locale,Pais,charsets,insimul de characteres, Symbolo decimal,separator de milles,symbolo,separator,signo,positive,negative,numerario,moneta,cifras fractional,calendario,tempore,data,formatos,septimana,initio de septimana, prime,papiro,grandor,littera,A4,mesura, metric,Anglese,Imperial,region,unitates de mesura,collation,ordinar,formato de data",
    "X-KDE-Keywords[it]": "lingua,traduzione,formato dei numeri,localizzazione,nazione,codifica,insieme dei caratteri,simbolo decimale,separatore delle migliaia,simbolo,separatore,segno,positivo,negativo,valuta,moneta,cifre decimali,calendario,ora,data,formati,settimana,inizio settimana,primo,carta,dimensione,lettera,A4,misura,metrico,inglese,imperiale,regione,unità di misura,collazione,ordinamento,formato della data",
    "X-KDE-Keywords[ko]": "language,translation,number format,locale,Country,charsets,character sets,Decimal symbol,Thousands separator,symbol,separator,sign,positive,negative,currency,money,fractional digits,calendar,time,date,formats,week,week start,first,paper,size,letter,A4,measure,metric,English,Imperial,region,measurement units,collation,sorting,date format,언어,번역,숫자,로캘,로케일,국가,나라,지역,문자셋,문자 인코딩,인코딩,소숫점,기호,구분자,양수,음수,통화,화폐,돈,달력,시간,시각,날짜,주,시작 요일,요일,종이,크기,미터법,지역,야드파운드법,단위,정렬,날짜 형식",
    "X-KDE-Keywords[nl]": "taal,vertaling,getalformaat,locale,land,tekensets,decimaalsymbool,duizendscheidingsteken,symbool,scheidingsteken,teken,positief,negatief,valuta,geld,decimale cijfers,agenda,tijd,datum,formaten,week,weekbegin,eerst,papier,grootte,letter,A4,afmeting,metrisch,Engels,Imperiaal,regio,meeteenheden,vergelijking,sorteren,datumformaat",
    "X-KDE-Keywords[nn]": "språk,omsetjing,talformat,lokale,locale,land,teiknkodingar,teiknsett,desimalskiljeteikn,tusenskiljeteikn,symbol,skiljeteikn,tein,positiv,negativ,valuta,pengar,siffer,kalender,tid,dato,klokkeslett,format,veke,vekestart,første,papir,storleik,letter,A4,mål,metrisk,engelsk,britisk,region,måleeiningar,kollatering,sortering,datoformat",
    "X-KDE-Keywords[pl]": "język,tłumaczenie,format liczb,regionalność,kraj,zestaw znaków,symbol dziesiętny,separator tysięcy,symbol,separator,znak,dodatni,ujemny,waluta,pieniądze,ułamkowe cyfry,kalendarz,czas,data,formaty,tydzień,początek tygodnia,pierwszy,papier,rozmiar,list,A4,miara,metryczna,Angielski,Cesarskie,region,jednostki miary,grupowanie,sortowanie,format daty",
    "X-KDE-Keywords[pt]": "língua,tradução,formato numérico,região,país,codificações,conjuntos de caracteres,símbolo decimal,separador dos milhares,símbolo,separador,sinal,positivo,negativo,moeda,dinheiro,casas decimais,calendário,hora,data,formatos,semana,início da semana,primeiro,papel,tamanho,carta,A4,medida,métrica,inglês,imperial,região,unidades de medida,ordenação,formato de datas",
    "X-KDE-Keywords[pt_BR]": "idioma,tradução,formato de números,localização,país,codificações,codificações de caracteres,símbolo decimal,separador de milhares,símbolo,separador,sinal,positivo,negativo,moeda,monetário,casas decimais,calendário,hora,data,formatos,semana,início da semana,primeiro,papel,tamanho,carta,A4,medida,medir,inglês,imperial,região,unidades de medida,colação,ordenamento,formato de data",
    "X-KDE-Keywords[ru]": "language,translation,number format,locale,Country,charsets,character sets,Decimal symbol,Thousands separator,symbol,separator,sign,positive,negative,currency,money,fractional digits,calendar,time,date,formats,week,week start,first,paper,size,letter,A4,measure,metric,English,Imperial,region,measurement units,collation,sorting,date format,язык,перевод,формат чисел,локаль,страна,кодировка,наборы символов,десятичный разделитель,тысячный разделитель,символ,разделитель,подпись,положительный, отрицательный,валюта, деньги, дробные цифры, календарь, время, дата,формат, неделя,начало недели,бумага,размер, буквы,измерение,система мера,метрика,Английский,Русский,единицы измерения,сопоставление,сортировка,формат даты",
    "X-KDE-Keywords[sk]": "jazyk,preklad,formát čísla,lokál,krajina,znakové sady,znakové sady,desatinný symbol, oddeľovač tisícov,symbol,oddeľovač,znak,kladný,záporný,mena,peniaze,zlomkové číslice,kalendár,čas,dátum,formáty,týždeň,začiatok týždňa, prvý,papier,veľkosť,list,A4,miera,metrická,anglická,cisárska,región, merné jednotky,zoraďovanie,triedenie,formát dátumu",
    "X-KDE-Keywords[sl]": "jezik,prevod,format števil,lokalno,država,nabor znakov,kodna tabela,decimalni simbol,ločilnik tisočic,simbol,ločilnik,predznak,pozitivno,negativno,valuta,denar,ulomek,koledar,čas,datum,formati,teden,začetni teden,prvi,papir,velikost,letter,A4,mera,metrično,angleško,imperialno,regija,enote mere,abecedni red,razvrščanje,oblika datuma",
    "X-KDE-Keywords[sv]": "språk,översättning,nummerformat,plats,Land,teckenuppsättningar,decimalsymbol,tusentalsavgränsare,symbol,avgränsare,tecken,positivt,negativt,valuta,pengar,bråkdelssiffror,kalender,tid,datum,format,vecka, veckostart,först,papper,storlek,letter,A4,mått,meter,engelska,område,måttenheter,sorteringsordning,datumformat",
    "X-KDE-Keywords[ta]": "language,translation,number format,locale,Country,charsets,character sets,Decimal symbol,Thousands separator,symbol,separator,sign,positive,negative,currency,money,fractional digits,calendar,time,date,formats,week,week start,first,paper,size,letter,A4,measure,metric,English,Imperial,region,measurement units,collation,sorting,date format, மொழி, மொழிபெயர்ப்பு, எண் வடிவம், நாடு, ஊர், ஆயிரம் பிரிப்பான், அளவு, அலகுகள், வாரம், நாள்காட்டி, நாட்காட்டி, மெட்ரிக், வரிசைப்படுத்தல், தொகுப்பு, தேதி",
    "X-KDE-Keywords[uk]": "language,translation,number format,locale,Country,charsets,character sets,Decimal symbol,Thousands separator,symbol,separator,sign,positive,negative,currency,money,fractional digits,calendar,time,date,formats,week,week start,first,paper,size,letter,A4,measure,metric,English,Imperial,region,measurement units,collation,sorting,date format,мова,мови,переклад,переклади,числа,формат,число,локаль,країна,набір,символ,кодування,розряд,тисяч,дробовий,дробова частина,роздільник,символ,знак,додатне,додатний,додатній,від’ємний,від’ємне,валюта,гроші,грошова одиниця,календар,час,дата,формати,тиждень,робочий тиждень,початок тижня,перший,папір,аркуш,вимір,виміри,вимірювання,одиниці вимірювання,метричний,метричні,метр,англійські,імперські,регіон,одиниці виміру,об'єднання,упорядкування,упорядковування,формат дати",
    "X-KDE-Keywords[vi]": "language,translation,number format,locale,Country,charsets,character sets,Decimal symbol,Thousands separator,symbol,separator,sign,positive,negative,currency,money,fractional digits,calendar,time,date,formats,week,week start,first,paper,size,letter,A4,measure,metric,English,Imperial,region,measurement units,collation,sorting,date format,ngôn ngữ,biên dịch,dạng thức số,vùng,quốc gia,bộ mã tự,bộ chữ,dấu thập phân,dấu phân cách hàng nghìn,kí hiệu,phần phân cách,dấu,dương,âm,tiền tệ,tiền,chữ số thập phân,lịch,thời gian,ngày,dạng thức,tuần,bắt đầu tuần,đầu tiên,giấy,cỡ,thư,đo,theo hệ mét,theo hệ Anh,vùng,đơn vị đo,đối chiếu,sắp xếp,dạng thức thời gian",
    "X-KDE-Keywords[x-test]": "xxlanguagexx,xxtranslationxx,xxnumber formatxx,xxlocalexx,xxCountryxx,xxcharsetsxx,xxcharacter setsxx,xxDecimal symbolxx,xxThousands separatorxx,xxsymbolxx,xxseparatorxx,xxsignxx,xxpositivexx,xxnegativexx,xxcurrencyxx,xxmoneyxx,xxfractional digitsxx,xxcalendarxx,xxtimexx,xxdatexx,xxformatsxx,xxweekxx,xxweek startxx,xxfirstxx,xxpaperxx,xxsizexx,xxletterxx,xxA4xx,xxmeasurexx,xxmetricxx,xxEnglishxx,xxImperialxx,xxregionxx,xxmeasurement unitsxx,xxcollationxx,xxsortingxx,xxdate formatxx",
    "X-KDE-Keywords[zh_CN]": "language,translation,number format,locale,Country,charsets,character sets,Decimal symbol,Thousands separator,symbol,separator,sign,positive,negative,currency,money,fractional digits,calendar,time,date,formats,week,week start,first,paper,size,letter,A4,measure,metric,English,Imperial,语言,翻译,数字格式,符号格式,语种,语系,书写系统,文字系统,国家,字符,字符集,千分符,十进制符号,符号,分隔符,正数,负数,现金,货币符号,货币,币种,钱,日历,分号,时间,日期,星期,周,每星期第一天,每周开始日,日期格式,纸张,大小,信件,单位,单位格式,度量,度量衡,英制,公制,美制,排序,排序规则,排序顺序,整理,顺序",
    "X-KDE-System-Settings-Parent-Category": "regionalsettings",
    "X-KDE-Weight": 10
}
