{
    "KPackageStructure": "Plasma/Applet",
    "KPlugin": {
        "Authors": [
            {
                "Email": "sebas@kde.org",
                "Name": "Sebastian Kügler",
                "Name[ar]": "Sebastian Kügler",
                "Name[az]": "Sebastian Kügler",
                "Name[be]": "Sebastian Kügler",
                "Name[bg]": "Sebastian Kügler",
                "Name[ca@valencia]": "Sebastian Kügler",
                "Name[ca]": "Sebastian Kügler",
                "Name[cs]": "Sebastian Kügler",
                "Name[da]": "Sebastian Kügler",
                "Name[de]": "Sebastian Kügler",
                "Name[en_GB]": "Sebastian Kügler",
                "Name[eo]": "Sebastian Kügler",
                "Name[es]": "Sebastian Kügler",
                "Name[et]": "Sebastian Kügler",
                "Name[eu]": "Sebastian Kügler",
                "Name[fi]": "Sebastian Kügler",
                "Name[fr]": "Sebastian Kügler",
                "Name[he]": "סבסטיאן קיגלר",
                "Name[hi]": "सेबस्टियन कुगलर",
                "Name[hu]": "Sebastian Kügler",
                "Name[ia]": "Sebastian Kügler",
                "Name[id]": "Sebastian Kügler",
                "Name[is]": "Sebastian Kügler",
                "Name[it]": "Sebastian Kügler",
                "Name[ja]": "Sebastian Kügler",
                "Name[ka]": "სებასტიან კუგლერი",
                "Name[ko]": "Sebastian Kügler",
                "Name[lt]": "Sebastian Kügler",
                "Name[nl]": "Sebastian Kügler",
                "Name[nn]": "Sebastian Kügler",
                "Name[pa]": "Sebastian Kügler",
                "Name[pl]": "Sebastian Kügler",
                "Name[pt]": "Sebastian Kügler",
                "Name[pt_BR]": "Sebastian Kügler",
                "Name[ro]": "Sebastian Kügler",
                "Name[ru]": "Sebastian Kügler",
                "Name[sa]": "सेबास्टियन् कुग्लर्",
                "Name[sk]": "Sebastian Kügler",
                "Name[sl]": "Sebastian Kügler",
                "Name[sv]": "Sebastian Kügler",
                "Name[ta]": "ஸெபாஸ்டியன் கூக்லர்",
                "Name[tr]": "Sebastian Kügler",
                "Name[uk]": "Sebastian Kügler",
                "Name[vi]": "Sebastian Kügler",
                "Name[x-test]": "xxSebastian Küglerxx",
                "Name[zh_CN]": "Sebastian Kügler",
                "Name[zh_TW]": "Sebastian Kügler"
            },
            {
                "Email": "kde@privat.broulik.de",
                "Name": "Kai Uwe Broulik",
                "Name[ar]": "Kai Uwe Broulik",
                "Name[az]": "Kai Uwe Broulik",
                "Name[be]": "Kai Uwe Broulik",
                "Name[bg]": "Kai Uwe Broulik",
                "Name[ca@valencia]": "Kai Uwe Broulik",
                "Name[ca]": "Kai Uwe Broulik",
                "Name[cs]": "Kai Uwe Broulik",
                "Name[da]": "Kai Uwe Broulik",
                "Name[de]": "Kai Uwe Broulik",
                "Name[en_GB]": "Kai Uwe Broulik",
                "Name[eo]": "Kai Uwe Broulik",
                "Name[es]": "Kai Uwe Broulik",
                "Name[et]": "Kai Uwe Broulik",
                "Name[eu]": "Kai Uwe Broulik",
                "Name[fi]": "Kai Uwe Broulik",
                "Name[fr]": "Kai Uwe Broulik",
                "Name[he]": "קאי אווה ברוליק",
                "Name[hi]": "काई उवे ब्रोलिक",
                "Name[hu]": "Kai Uwe Broulik",
                "Name[ia]": "Kai Uwe Broulik",
                "Name[id]": "Kai Uwe Broulik",
                "Name[is]": "Kai Uwe Broulik",
                "Name[it]": "Kai Uwe Broulik",
                "Name[ja]": "Kai Uwe Broulik",
                "Name[ka]": "კაი უვე ბროულიკი",
                "Name[ko]": "Kai Uwe Broulik",
                "Name[lt]": "Kai Uwe Broulik",
                "Name[nl]": "Kai Uwe Broulik",
                "Name[nn]": "Kai Uwe Broulik",
                "Name[pl]": "Kai Uwe Broulik",
                "Name[pt]": "Kai Uwe Broulik",
                "Name[pt_BR]": "Kai Uwe Broulik",
                "Name[ro]": "Kai Uwe Broulik",
                "Name[ru]": "Kai Uwe Broulik",
                "Name[sa]": "कै उवे ब्रौलिक्",
                "Name[sk]": "Kai Uwe Broulik",
                "Name[sl]": "Kai Uwe Broulik",
                "Name[sv]": "Kai Uwe Broulik",
                "Name[ta]": "காய் ஊவே புரோலிக்",
                "Name[tr]": "Kai Uwe Broulik",
                "Name[uk]": "Kai Uwe Broulik",
                "Name[vi]": "Kai Uwe Broulik",
                "Name[x-test]": "xxKai Uwe Broulikxx",
                "Name[zh_CN]": "Kai Uwe Broulik",
                "Name[zh_TW]": "Kai Uwe Broulik"
            }
        ],
        "BugReportUrl": "https://bugs.kde.org/enter_bug.cgi?product=plasmashell&component=Battery%20Monitor",
        "Category": "System Information",
        "Description": "See the power status of your battery",
        "Description[ar]": "طالع حالة طاقة البطارية",
        "Description[az]": "Batareyanızın enerji səviyyəsinə baxın",
        "Description[be]": "Назіранне за станам батарэі",
        "Description[bg]": "Показва състоянието на батерията",
        "Description[ca@valencia]": "Vegeu l'estat d'energia de la bateria",
        "Description[ca]": "Vegeu l'estat d'energia de la bateria",
        "Description[cs]": "Zobrazí stav nabití vaší baterie",
        "Description[da]": "Se dit batteris strømstatus",
        "Description[de]": "Den Ladestatus des Akkus anzeigen",
        "Description[en_GB]": "See the power status of your battery",
        "Description[eo]": "Montri energian staton de via baterio",
        "Description[es]": "Ver el estado de energía de su batería",
        "Description[et]": "Aku oleku näitaja",
        "Description[eu]": "Ikusi zure bateriaren energia-egoera",
        "Description[fi]": "Näyttää akun virtatilanteen",
        "Description[fr]": "Consulter le niveau d'énergie de votre batterie",
        "Description[he]": "הצגת מצב הטעינה של הסוללה שלך",
        "Description[hi]": "अपनी बैटरी की बिजली स्थिति देखें ",
        "Description[hu]": "Az akkumulátorok állapotának megjelenítése",
        "Description[ia]": "Vide le stato de energia de tu batteria",
        "Description[id]": "Lihat status daya bateraimu",
        "Description[is]": "Sjá orkustöðu rafhlöðu",
        "Description[it]": "Indica lo stato di carica della batteria",
        "Description[ja]": "バッテリの状態を表示します",
        "Description[ka]": "ელემენტის სტატუსის ჩვენება",
        "Description[ko]": "배터리 상태를 표시합니다",
        "Description[lt]": "Rodyti akumuliatoriaus įkrovą",
        "Description[nl]": "Zie de capaciteitsstatus van uw accu",
        "Description[nn]": "Sjå straum­nivået på batteriet",
        "Description[pa]": "ਆਪਣੀ ਬੈਟਰੀ ਦੀ ਊਰਜਾ ਹਾਲਤ ਵੇਖੋ",
        "Description[pl]": "Monitoruje stan naładowania baterii",
        "Description[pt]": "Ver o estado de energia da sua bateria",
        "Description[pt_BR]": "Mostra o estado da carga da sua bateria",
        "Description[ro]": "Vedeți starea acumulatorului dumneavoastră",
        "Description[ru]": "Просмотр уровня заряда батареи",
        "Description[sa]": "भवतः विद्युत्कोष-शक्ति-स्थितिं पश्यन्तु",
        "Description[sk]": "Zobrazenie stavu nabitia vašej batérie",
        "Description[sl]": "Oglejte si stanje napolnjenosti baterije",
        "Description[sv]": "Se batteriets laddningsstatus",
        "Description[ta]": "உங்கள் மின்கலத்தின் ஆற்றல் நிலையைப் பாருங்கள்",
        "Description[tr]": "Pilinizin güç durumunu görün",
        "Description[uk]": "Перегляньте стан заряду акумулятора",
        "Description[vi]": "Xem tình trạng nguồn điện của pin",
        "Description[x-test]": "xxSee the power status of your batteryxx",
        "Description[zh_CN]": "查看电池的电量状态",
        "Description[zh_TW]": "查看您的電池的電力狀態",
        "EnabledByDefault": true,
        "FormFactors": [
            "desktop"
        ],
        "Icon": "battery-full",
        "Id": "org.kde.plasma.battery",
        "License": "GPL-2.0+",
        "Name": "Battery and Brightness",
        "Name[ar]": "البطّاريّة والسّطوع",
        "Name[ast]": "Batería ya brillu",
        "Name[az]": "Batareya və Parlaqlıq",
        "Name[be]": "Батарэя і яркасць",
        "Name[bg]": "Батерия и Яркост на екрана",
        "Name[ca@valencia]": "Bateria i brillantor",
        "Name[ca]": "Bateria i lluminositat",
        "Name[cs]": "Baterie a Jas",
        "Name[da]": "Batteri og lysstyrke",
        "Name[de]": "Akku und Bildschirmhelligkeit",
        "Name[el]": "Μπαταρία και λαμπρότητα",
        "Name[en_GB]": "Battery and Brightness",
        "Name[eo]": "Baterio kaj Brileco",
        "Name[es]": "Batería y brillo",
        "Name[et]": "Aku ja heledus",
        "Name[eu]": "Bateria eta distira",
        "Name[fi]": "Akku ja kirkkaus",
        "Name[fr]": "Batterie et luminosité",
        "Name[gl]": "Batería e brillo",
        "Name[he]": "סוללה ובהירות",
        "Name[hi]": "बैटरी और चमक ",
        "Name[hsb]": "Akuw a swětłosć",
        "Name[hu]": "Akkumulátor és fényerő",
        "Name[ia]": "Intensitate de illumination e batteria",
        "Name[id]": "Baterai dan Kecerahan",
        "Name[is]": "Rafhlaða og skjábirta",
        "Name[it]": "Batteria e luminosità",
        "Name[ja]": "バッテリーと明るさ",
        "Name[ka]": "ელემენტი და სიკაშკაშე",
        "Name[ko]": "배터리와 밝기",
        "Name[lt]": "Akumuliatorius ir ryškumas",
        "Name[lv]": "Baterija un gaišums",
        "Name[ml]": "ബാറ്ററിയും തെളിച്ചവും",
        "Name[nl]": "Batterij en helderheid",
        "Name[nn]": "Batteri og lysstyrke",
        "Name[pa]": "ਬੈਟਰੀ ਤੇ ਚਮਕ",
        "Name[pl]": "Bateria i jasność",
        "Name[pt]": "Bateria e Brilho",
        "Name[pt_BR]": "Bateria e brilho da tela",
        "Name[ro]": "Acumulator și luminozitate",
        "Name[ru]": "Батарея и яркость",
        "Name[sa]": "विद्युत्कोष च प्रचुरप्रकाशता",
        "Name[sk]": "Batéria a jas",
        "Name[sl]": "Baterija in svetlost",
        "Name[sr@ijekavian]": "Батерија и освјетљај",
        "Name[sr@ijekavianlatin]": "Baterija i osvjetljaj",
        "Name[sr@latin]": "Baterija i osvetljaj",
        "Name[sr]": "Батерија и осветљај",
        "Name[sv]": "Batteri och ljusstyrka",
        "Name[ta]": "மின்கலமும் பிரகாசமும்",
        "Name[tg]": "Батарея ва дурахшонӣ",
        "Name[tr]": "Pil ve Ekran Parlaklığı",
        "Name[uk]": "Акумулятор і яскравість дисплея",
        "Name[vi]": "Pin và độ sáng",
        "Name[x-test]": "xxBattery and Brightnessxx",
        "Name[zh_CN]": "电池和亮度",
        "Name[zh_TW]": "電池與亮度"
    },
    "Keywords": "Power Management;Battery;System;Energy;",
    "Keywords[ar]": "إدارة الطاقة;بطارية;نظام;طاقة;",
    "Keywords[ast]": "Xestión enerxética;Xestión d'enerxía;Batería;Sistema;Enerxía;",
    "Keywords[az]": "El. Enerjisi İdarəsi;Batareya;Enerji",
    "Keywords[bs]": "Upravljanje napajenjem;Baterija;Sistem;Energija;",
    "Keywords[ca@valencia]": "Sistema de gestió d'energia;Bateria;Sistema;Energia;",
    "Keywords[ca]": "Sistema de gestió d'energia;Bateria;Sistema;Energia;",
    "Keywords[cs]": "Správa napájení;Baterie;Systém;Energie;",
    "Keywords[da]": "Strømstyring;battery;system;energi;",
    "Keywords[de]": "Energieverwaltungssystem;Akku;System;Energie;",
    "Keywords[el]": "Διαχείριση ισχύος;Μπαταρία;Σύστημα;Ενέργεια;",
    "Keywords[en_GB]": "Power Management;Battery;System;Energy;",
    "Keywords[es]": "Gestión de energía;Batería;Sistema;Energía;",
    "Keywords[et]": "Toitehaldus;aku;süsteem;energia;",
    "Keywords[eu]": "energia kudeaketa;bateria;sistema;energia;",
    "Keywords[fi]": "Virranhallinta;Akku;Järjestelmä;Virransäästö;",
    "Keywords[fr]": "Gestion de l'énergie;Batterie;Système;Énergie;",
    "Keywords[gl]": "Xestión da enerxía;batería;sistema;enerxía;",
    "Keywords[he]": "Power Management; Battery; System; Energy;ניהול חשמל;חשמל; סוללה; מערכת;אנרגיה; בטריה;",
    "Keywords[hi]": "विद्युत प्रबंधन;बैटरी;तंत्र;ऊर्जा;",
    "Keywords[hsb]": "Power Management;Battery;System;Energy;akuw;energija;milina;",
    "Keywords[hu]": "Energiakezelés;Akkumulátor;Rendszer;Energia;",
    "Keywords[ia]": "Gestion de energia;Batteria;Systema; Energia;",
    "Keywords[id]": "Pengelolaan Daya;Baterai;Sistem;Energi;",
    "Keywords[is]": "Orkustjórnun;Rafhlaða;Kerfi;Afl;",
    "Keywords[it]": "Gestione energetica;Batteria;Sistema;Energia;",
    "Keywords[ja]": "電源管理;バッテリー;システム;エネルギー;",
    "Keywords[kk]": "Power Management;Battery;System;Energy;",
    "Keywords[ko]": "Power Management;Battery;System;Energy;전원 관리;전력 관리;배터리;시스템;에너지;",
    "Keywords[lt]": "Energijos valdymas;Baterija;Sistema;Energija;Akumuliatorius;Maitinimo valdymas;",
    "Keywords[ml]": "ഊർജ്ജനിയന്ത്രണം;ബാറ്ററി;സിസ്റ്റം;ഊ‍ർജ്ജം",
    "Keywords[mr]": "वीज व्यवस्थापन; बॅटरी; प्रणाली; ऊर्जा;",
    "Keywords[nb]": "Strømstyring; Batteri; System; Energi;",
    "Keywords[nds]": "Stroompleeg,Batterie,Systeem,Energie",
    "Keywords[nl]": "Energiebeheer;Batterij;Accu;Systeem;Energie;",
    "Keywords[nn]": "straumstyring;batteri;system;energi;",
    "Keywords[pa]": "ਪਾਵਰ ਪਰਬੰਧ;ਬੈਟਰੀ;ਸਿਸਟਮ;ਊਰਜਾ;",
    "Keywords[pl]": "Zarządzanie Energią;Bateria;System;Energia;",
    "Keywords[pt]": "Gestão de Energia;Bateria;Sistema;Energia;",
    "Keywords[pt_BR]": "Gerenciamento de energia;Bateria;Sistema;Energia;",
    "Keywords[ro]": "gestiunea alimentării;acumulator;sistem;energie;",
    "Keywords[ru]": "Power Management;Battery;System;Energy;управление питанием;батарея;система;энергия;энергопотребление;",
    "Keywords[sk]": "Správa napájania;Batéria;Systém;Energia;",
    "Keywords[sl]": "Upravljanje z energijo;Baterija;Sistem;Energija;",
    "Keywords[sr@ijekavian]": "Power Management;Battery;System;Energy;управљање напајањем;батерија; систем;енергија;",
    "Keywords[sr@ijekavianlatin]": "Power Management;Battery;System;Energy;upravljanje napajanjem;baterija; sistem;energija;",
    "Keywords[sr@latin]": "Power Management;Battery;System;Energy;upravljanje napajanjem;baterija; sistem;energija;",
    "Keywords[sr]": "Power Management;Battery;System;Energy;управљање напајањем;батерија; систем;енергија;",
    "Keywords[sv]": "Strömhantering;Batteri;System;Energi;",
    "Keywords[ta]": "Power Management;Battery;System;Energy;ஆற்றல்;மின்கலம்;கணினி;ஆற்றல் மேலாண்மை;",
    "Keywords[tr]": "Güç Yönetimi;Pil;Sistem;Enerji;",
    "Keywords[uk]": "Power Management;Battery;System;Energy;керування живленням;акумулятор;система;енергія;батарея;батарейка;живлення;",
    "Keywords[vi]": "Power Management;Battery;System;Energy;Quản lí nguồn điện;Pin;Hệ thống;Năng lượng;",
    "Keywords[x-test]": "xxPower Managementxx;xxBatteryxx;xxSystemxx;xxEnergyxx;",
    "Keywords[zh_CN]": "电源管理;电池;系统;能源;",
    "Keywords[zh_TW]": "Power Management;Battery;System;Energy;",
    "X-Plasma-DBusActivationService": "org.kde.Solid.PowerManagement",
    "X-Plasma-NotificationAreaCategory": "Hardware",
    "X-Plasma-Provides": [
        "org.kde.plasma.powermanagement"
    ]
}
